{
	"info": {
		"name" : "Fake",
		"author" : "Angelo \"Encelo\" Theodorou",
		"version" : "1.0",
		"description" : "A fake benchmark made to illustrate how to write a GLOBS benchmark",
		"file" : "fake",
		"defaults" : {"fullscreen":false, "width":640, "height":480, "time":5}
	}
}
